{
    "projectName": "test",
    "version": "3.0",
    "frontend": "javascript",
    "javascript": {
        "framework": "vue",
        "config": {
            "SourceDir": "src",
            "DistributionDir": "dist",
            "BuildCommand": "npm run build",
            "StartCommand": "npm run serve"
        }
    },
    "providers": [
        "awscloudformation"
    ]
}