{
    "test": {
        "awscloudformation": {
            "AuthRoleName": "amplify-test-test-225224-authRole",
            "UnauthRoleArn": "arn:aws:iam::078774030650:role/amplify-test-test-225224-unauthRole",
            "AuthRoleArn": "arn:aws:iam::078774030650:role/amplify-test-test-225224-authRole",
            "Region": "eu-central-1",
            "DeploymentBucketName": "amplify-test-test-225224-deployment",
            "UnauthRoleName": "amplify-test-test-225224-unauthRole",
            "StackName": "amplify-test-test-225224",
            "StackId": "arn:aws:cloudformation:eu-central-1:078774030650:stack/amplify-test-test-225224/d9ac3200-7e91-11ea-b91f-02433c861a1c",
            "AmplifyAppId": "d2waekwoz1zsps"
        },
        "categories": {
            "auth": {
                "test38670fd9": {}
            }
        }
    }
}